https://raw.githubusercontent.com/Daeinar/cryptopals/master/src/c23.rs
https://raw.githubusercontent.com/jaybosamiya/cryptopals-solutions/master/set3/23/run.py
https://raw.githubusercontent.com/jaybosamiya/cryptopals-solutions/master/set3/23/mersenne.py
https://raw.githubusercontent.com/akalin/cryptopals-python3/master/challenge23.py
https://raw.githubusercontent.com/technion/matasano_challenge/master/set3/chal23/chal23.rb
