https://raw.githubusercontent.com/svanegas/programming_solutions/master/Codeforces/272A%20-%20Dima%20and%20Friends/272A.cpp
https://raw.githubusercontent.com/o-panda-o/MySolutions/master/Implementation/Code_272A_DimaAndFriends.java
https://raw.githubusercontent.com/changyuheng/codeforces-solutions/master/272a.py
