146
1808
13 37
23 46
21 54
30 73
6 17
26 64
22 47
9 18
30 73
28 47
8 17
23 34
10 22
12 26
7 15
27 51
17 37
29 36
14 40
26 48
26 60
8 16
10 16
30 42
6 17
19 26
16 24
15 34
26 63
10 29
12 14
14 36
22 36
28 30
11 27
16 18
14 31
19 42
29 62
25 75
16 27
9 26
20 43
18 33
12 30
14 30
26 65
13 26
6 8
19 31
29 29
15 24
21 61
28 60
18 43
19 56
6 15
27 62
12 22
7 15
9 17
9 27
10 20
18 28
23 25
20 46
6 18
29 69
29 79
11 21
19 50
15 33
18 28
11 29
22 36
15 41
25 53
26 77
6 10
11 28
15 40
15 29
26 43
8 20
9 16
9 23
10 22
13 32
27 58
19 40
28 82
15 35
18 26
21 45
19 53
13 38
24 58
15 31
5 11
12 17
30 57
30 40
6 9
28 80
27 51
17 44
15 41
16 45
7 8
17 39
5 13
20 50
17 18
12 24
20 42
24 52
5 12
24 26
30 70
30 82
7 13
21 42
12 14
15 26
10 28
5 7
21 48
29 35
22 31
21 32
25 43
27 69
6 13
26 28
11 29
28 48
11 23
27 56
22 33
28 78
7 21
7 18
20 21
27 40
11 22
18 19
