https://raw.githubusercontent.com/nayuki/Project-Euler-solutions/master/java/p029.java
https://raw.githubusercontent.com/zsiciarz/euler.rs/master/src/solutions/problem29.rs
https://raw.githubusercontent.com/kdungs/euler/master/029/euler_29.py
https://www.mathblog.dk/project-euler-29-distinct-terms-sequence-ab/
https://raw.githubusercontent.com/zimpha/competitive-programming/master/project-euler/volume01/29.cc
https://raw.githubusercontent.com/nayuki/Project-Euler-solutions/blob/master/haskell/p029.hs
