https://raw.githubusercontent.com/mpillar/codeeval/master/1-moderate/bats-challenge/main.py
https://raw.githubusercontent.com/nikai3d/ce-challenges/master/moderate/bats.c
https://raw.githubusercontent.com/nikai3d/ce-challenges/master/moderate/bats.go
https://raw.githubusercontent.com/nikai3d/ce-challenges/master/moderate/bats.hs
https://raw.githubusercontent.com/nikai3d/ce-challenges/master/moderate/bats.lua
https://raw.githubusercontent.com/nikai3d/ce-challenges/master/moderate/bats.pl
https://raw.githubusercontent.com/nikai3d/ce-challenges/master/moderate/bats.r
https://raw.githubusercontent.com/nikai3d/ce-challenges/master/moderate/bats.rb
https://raw.githubusercontent.com/pascal-bourut/codeeval-challenges/master/moderate/146%20-%20Bats%20Challenge/146.js
https://raw.githubusercontent.com/pascal-bourut/codeeval-challenges/master/moderate/146%20-%20Bats%20Challenge/146.php
