https://www.youtube.com/watch?v=PZLglf0twOM&t=28s
https://github.com/Macmod/pwnable-writeups/blob/master/toddlers/mistake.md
https://gist.github.com/ihciah/0ca68da3e32e38818bb9#9-mistake
https://jeonyoungsin.tistory.com/918?category=878012
