https://raw.githubusercontent.com/mementum/codeeval/master/03-hard/0044-following-integer/0044-following-integer.cpp
https://raw.githubusercontent.com/mementum/codeeval/master/03-hard/0044-following-integer/0044-following-integer.py
https://raw.githubusercontent.com/SedaKunda/CodeEval/master/Hard-Level/FollowingInteger.java
