https://raw.githubusercontent.com/nayuki/Project-Euler-solutions/master/java/p036.java
https://raw.githubusercontent.com/sile/euler.rs/master/euler_01/src/problem036.rs
https://raw.githubusercontent.com/kdungs/euler/master/036/euler_36.hs
https://www.mathblog.dk/project-euler-36-palindromic-base-10-2/
https://github.com/zimpha/competitive-programming/raw/master/project-euler/volume01/36.cc
https://raw.githubusercontent.com/nayuki/Project-Euler-solutions/blob/master/python/p036.py
https://raw.githubusercontent.com/nayuki/Project-Euler-solutions/blob/master/mathematica/p036.mathematica
