https://www.youtube.com/watch?v=K-7p-bep_vM
http://hackinblood.lasermark.co/http-open-redirect-root-me/
https://bitbelle.wordpress.com/2018/01/10/root-me-web-server-challenge-solutions/
https://www.youtube.com/watch?v=8KpYqij8SJI
https://codeasy.nl/hacking/root-me-antwoorden/http-open-redirect/
