https://raw.githubusercontent.com/nayuki/Project-Euler-solutions/master/java/p121.java
https://raw.githubusercontent.com/nayuki/Project-Euler-solutions/master/python/p121.py
https://www.mathblog.dk/project-euler-121-coloured-discs/
