https://raw.githubusercontent.com/igor-kutepov/codeabbey/master/src/main/java/com/kutepov/samples/codeabbey/GradientCalculation.java
https://raw.githubusercontent.com/Xzya/CodeAbbeySolutions/master/GradientCalculation.py
https://raw.githubusercontent.com/JesseClarkND/codeabbey_in_C-NET/master/Gradient%20Calculation
https://www.codeabbey.com/index/task_solution?task=gradient-calculation&user=andrew-sitnikov&lang=Ruby
https://www.codeabbey.com/index/task_solution?task=gradient-calculation&user=ryfish&lang=PHP
https://www.codeabbey.com/index/task_solution?task=gradient-calculation&user=vladislav-kondratov&lang=JavaScript
https://www.codeabbey.com/index/task_solution?task=gradient-calculation&user=hamza772000&lang=VB
https://www.codeabbey.com/index/task_solution?task=gradient-calculation&user=bluknite&lang=Scala
https://www.codeabbey.com/index/task_solution?task=gradient-calculation&user=tohkayatogami&lang=Go
https://www.codeabbey.com/index/task_solution?task=gradient-calculation&user=simbiont666&lang=Haskell
https://www.codeabbey.com/index/task_solution?task=gradient-calculation&user=synesius&lang=Julia
https://www.codeabbey.com/index/task_solution?task=gradient-calculation&user=kostisk&lang=Other}
https://www.codeabbey.com/index/task_solution?task=gradient-calculation&user=johnnycake&lang=Other
