https://raw.githubusercontent.com/dwiajik/codeforces/master/144A.py
https://raw.githubusercontent.com/nikzsaz/Codeforces-solution/master/144A-ArrivalOfGeneral.cpp
https://raw.githubusercontent.com/Erfaniaa/Codeforces/master/144A-ArrivaloftheGeneral.pas
