https://raw.githubusercontent.com/rootulp/exercism/master/java/pangram/src/main/java/Pangrams.java
https://raw.githubusercontent.com/rootulp/exercism/master/python/pangram/pangram.py
https://raw.githubusercontent.com/rootulp/exercism/master/ruby/exercises/pangram/pangram.rb
https://exercism.io/tracks/scala/exercises/pangram/solutions/7f38b7b4ceb543499fe74661ff2e534c

