https://raw.githubusercontent.com/JesseClarkND/codeabbey_in_C-NET/master/Bicycle%20Race
https://raw.githubusercontent.com/ArnoldM904/CodeAbbey_Solutions/master/Python/id068-Bicycle_Race.py
https://raw.githubusercontent.com/John-Russell/CodeAbbey/master/Bicycle%20Race.rb
https://raw.githubusercontent.com/abhinav124/codeabbey/master/BicycleRace.java
https://raw.githubusercontent.com/Chainsawkitten/CodeAbbeyProblems/master/src/Problem%2068/Problem%2068.cpp
https://raw.githubusercontent.com/AleksandrSD/CodeAbbeyProblems/master/Problem68/Program.cs
https://raw.githubusercontent.com/danielmmetz/codeabbey/master/id68.hs
https://raw.githubusercontent.com/mmcdon20/code_abbey/master/src/main/scala/Abbey068.scala
