https://hacktips.it/wordpress-root-hackademic/
https://mcoskuner.net/2017/05/04/boot2root-hackademicrtb1/
https://vinegrep.blogspot.com/2017/03/hackademic-rtb1.html
https://ub3rsec.github.io/pages/2016/hackademic-rtb1.html
https://chousensha.github.io/blog/2016/07/18/pentest-lab-hackademic-rtb1/
https://rgolebiowski.blogspot.com/2016/07/hackademic-rtb1-challenge.html
http://bullsecurity.blogspot.com/2015/09/hackademic-rtb1-walkthru.html
https://www.nuharborsecurity.com/Application-Security-Testing-Tutorial-via-Rooting-Hackademics-RTB1
https://www.information-security.fr/ctf-challenge-hackademic-rtb1/
http://devloop.users.sourceforge.net/index.php?article76/solution-du-ctf-hackademic-rtb1
http://forelsec.blogspot.com/2012/11/solving-hackademic-rtb1_13.html
https://blog.g0tmi1k.com/2012/01/hackademic-rtb1/
http://www.fuzzysecurity.com/tutorials/5.html
