https://rundata.wordpress.com/2014/03/18/overthewire-wargame-solutions-7-10/
https://infamoussyn.com/2014/02/05/overthewire-natas-level-0-16-writeup-updated/#level9
http://r4stl1n.github.io/2014/12/27/OverTheWire-Natas8-16.html#natas-9
https://routley.io/tech/2017/06/17/natas.html
https://raw.githubusercontent.com/lv22/otw-natas/master/L09/level9.txt
https://www.youtube.com/watch?v=1IBuV6_Ol28&t=912s
https://manintheit.org/security/solutions-of-natas-1-15/
