https://raw.githubusercontent.com/sile/euler.rs/master/euler_02/src/problem064.rs
https://raw.githubusercontent.com/smacke/project-euler/master/python/64.py
https://raw.githubusercontent.com/nayuki/Project-Euler-solutions/master/java/p064.java
https://www.mathblog.dk/project-euler-continued-fractions-odd-period/
https://raw.githubusercontent.com/nayuki/Project-Euler-solutions/blob/master/mathematica/p064.mathematica
