https://raw.githubusercontent.com/igor-kutepov/codeabbey/master/src/main/java/com/kutepov/samples/codeabbey/SnakeArcade.java
https://raw.githubusercontent.com/chrisdfrey/code-abbey-solutions/master/snake-arcade.py
https://gitlab.com/CodeArtisan/codeabbey/raw/master/problem_96/solution.rkt
