http://hackerorgsolution.blogspot.com.co/2014/09/a-piece-of-pi.html
https://github.com/keroro520/Hacker.org/blob/master/A%20Piece%20of%20Pi
https://raw.githubusercontent.com/luceatnobis/challenges/master/hacker.org/piece_of_pi/piece.pl
