https://raw.githubusercontent.com/nayuki/Project-Euler-solutions/master/java/p102.java
https://raw.githubusercontent.com/nayuki/Project-Euler-solutions/master/python/p102.py
https://www.mathblog.dk/project-euler-102-triangles-contain-origin/
