https://raw.githubusercontent.com/ArnoldM904/CodeAbbey_Solutions/master/Python/id031-Rotate_String.py
https://raw.githubusercontent.com/gravoo/codeabbey/master/Rotate%20String.cpp
https://raw.githubusercontent.com/John-Russell/CodeAbbey/master/Rotate%20String.rb
https://raw.githubusercontent.com/madhavbharadwaj/CodeAbbey/master/java_31_Pythagorean_Theorem.java
https://raw.githubusercontent.com/posquit0/HackerRank/master/Functional-Programming/Miscellaneous/rotate-string.scala
https://raw.githubusercontent.com/cevaris/hackerrank/master/haskell/rotate-string/rotate-string.hs
https://gist.githubusercontent.com/mouseroot/5aa6d07d8d397aaf0c51e0f023cb53da/raw/847fcfa3da0fe4d20956ad414295034bf654b337/str_rot.c
https://raw.githubusercontent.com/AleksandrSD/CodeAbbeyProblems/master/Problem31/Program.cs
https://raw.githubusercontent.com/mpeshehonov/Codeabbey/master/practice/%2331/index.php
https://raw.githubusercontent.com/jeilow/codeabbey/master/problem_31.m
https://gitlab.com/CodeArtisan/codeabbey/raw/master/problem_31/solution.rkt
