https://blogcompsci.wordpress.com/2014/11/25/bandit-level-24-%E2%86%92-level-25/
https://hackmethod.com/overthewire-bandit-24/
http://codebluedev.blogspot.com.co/2015/07/overthewire-bandit-level-24.html
https://infamoussyn.com/2013/11/08/overthewire-bandit-level-0-25-writeup-completed/#level23
https://jdow.io/blog/2017/12/16/overthewire-bandit-wargame-walkthrough/#level-24---25
https://raw.githubusercontent.com/Cathon/mySolutions/master/overthewire/Bandit/Level_24.md
https://medium.com/@Kan1shka9/overthewire-wargames-bandit-walkthrough-df2b86826c67
https://jhalon.github.io/over-the-wire-bandit2/
https://www.youtube.com/watch?v=Xxo8_ET0do4
https://www.youtube.com/watch?v=pvSG0Z_tBIc
https://www.youtube.com/watch?v=Ofd1H-Gj-qg
https://www.youtube.com/watch?v=vXtSb_FTmHM
https://www.youtube.com/watch?v=Xxo8_ET0do4&t=2shttps://jdow.io/blog/2017/12/16/overthewire-bandit-wargame-walkthrough/#level-24---25
https://raw.githubusercontent.com/Lorenyx/mySolutions/master/overthewire/Bandit/Level_24.md
