https://raw.githubusercontent.com/adityagupta1089/Codeforces-Solutions/master/P450B.java
https://raw.githubusercontent.com/Waqar-107/Codeforces/master/B-set/450B.%20Jzzhu%20and%20Sequences.py
https://raw.githubusercontent.com/sreejithsankar55/Codeforces/master/450B(-mod).cpp
