https://raw.githubusercontent.com/c650/hackerrank-solutions/master/Algorithms/Greedy/board-cutting.cpp
https://raw.githubusercontent.com/havelessbemore/hackerrank/master/algorithms/greedy/board-cutting.java
https://raw.githubusercontent.com/ynyeh0221/HackerRank/master/Cutting%20Boards.py
