https://www.youtube.com/watch?v=9ZXG1qb8lUI
http://www.hackingarticles.in/hack-the-box-challenge-haircut-walkthrough/https://www.youtube.com/watch?v=Vh5z-gOjwqs
https://hkh4cks.com/blog/2017/12/30/htb-haircut-walkthrough/

