https://raw.githubusercontent.com/Alackey/codeabbey-projects/master/Sum%20in%20Loop/src/SuminLoop.java
https://raw.githubusercontent.com/JFMurphy/Codeabbey-solutions/master/Python/P002SumInLoop.py
https://raw.githubusercontent.com/marclerodrigues/ruby_exercises/master/sum_in_loop.rb
https://raw.githubusercontent.com/gravoo/codeabbey/master/%20Sum%20in%20Loop.cpp
https://raw.githubusercontent.com/Tempurturtul/CodeAbbey/master/C%23/SumLoop.cs
https://raw.githubusercontent.com/jsenne/Code-Abbey-Solutions/master/002_SumInLoop.js
https://raw.githubusercontent.com/chriswood/codeabbey/master/ca2.lisp
https://raw.githubusercontent.com/RyanLafferty/CodeAbbey/master/p2.c
https://raw.githubusercontent.com/mpeshehonov/Codeabbey/master/practice/%232/index.php
https://raw.githubusercontent.com/mmcdon20/code_abbey/master/src/main/scala/Abbey002.scala
https://raw.githubusercontent.com/YetAnotherMinion/YAMScratch/master/CodeAbbey/rust-sol/src/2.rs
https://raw.githubusercontent.com/schoolo/codeabbey/master/problems/two/main.go
https://raw.githubusercontent.com/JosephTLyons/MIPS-Assembly-Sum-Loop/master/SumLoop.asm
https://raw.githubusercontent.com/MadcapJake/codeabbey-problems/master/perl6/sum-in-loop/sum-in-loop.pl
https://gitlab.com/CodeArtisan/codeabbey/raw/master/problem_2/solution.rkt
https://www.youtube.com/watch?v=urQGS3t0t0U
https://www.youtube.com/watch?v=2-GFzShsDD8
https://www.youtube.com/watch?v=D85kUdfXLg4
https://raw.githubusercontent.com/skilled19/sols/master/appo_abbey-02-sum-in.loop-fs
https://raw.githubusercontent.com/peiandsky/codeabbeyByKotlin/blob/master/src/problems01_10/Problem02_SumInLoop.kt
https://raw.githubusercontent.com/JesseClarkND/codeabbey_in_C-NET/blob/master/Sum%20in%20Loop
http://rosettacode.org/wiki/Sum_and_product_of_an_array#jq
http://rosettacode.org/wiki/Sum_and_product_of_an_array#Nemerle
http://rosettacode.org/wiki/Sum_and_product_of_an_array#Pascal
http://rosettacode.org/wiki/Sum_and_product_of_an_array#Sparkling
http://rosettacode.org/wiki/Sum_and_product_of_an_array#UNIX_Shell
http://rosettacode.org/wiki/Sum_and_product_of_an_array#MATLAB
http://rosettacode.org/wiki/Sum_and_product_of_an_array#Erlang
