http://sp4hack.blogspot.com.co/2014/01/overthewire-bandit-level-16-to-level-18.html
https://hackmethod.com/overthewire-bandit-17/
https://alexandervoidstar.wordpress.com/2016/03/05/overthewire-bandit-level-17/
https://infamoussyn.com/2013/11/08/overthewire-bandit-level-0-25-writeup-completed/#level16
https://jdow.io/blog/2017/12/16/overthewire-bandit-wargame-walkthrough/#level-16---17
https://raw.githubusercontent.com/luceatnobis/challenges/master/overthewire.org/bandit/17/key
https://raw.githubusercontent.com/Cathon/mySolutions/master/overthewire/Bandit/Level_17.md
https://medium.com/@Kan1shka9/overthewire-wargames-bandit-walkthrough-df2b86826c67
https://github.com/milescrabill/overthewire-solutions/blob/master/Bandit.md
https://jhalon.github.io/over-the-wire-bandit2/
https://www.youtube.com/watch?v=RK8dljkbpbM
http://blog.zairo.kr/entry/OverTheWire-%E2%80%93-Bandit-Level-17?category=569917
https://rundata.wordpress.com/2013/03/21/overthewire-bandit-wargame-solutions-1-24/
https://raw.githubusercontent.com/Lorenyx/OverTheWire-Solutions/master/bandit/level_17.md
