https://raw.githubusercontent.com/nayuki/Project-Euler-solutions/master/java/p130.java
https://raw.githubusercontent.com/nayuki/Project-Euler-solutions/master/python/p130.py
https://www.mathblog.dk/project-euler-130-composite-values-repunits/
