https://raw.githubusercontent.com/mpillar/codeeval/master/1-moderate/interrupted-bubble-sort/main.py
https://raw.githubusercontent.com/pascal-bourut/codeeval-challenges/master/moderate/158%20-%20Interrupted%20bubble%20sort/158.js
https://raw.githubusercontent.com/pascal-bourut/codeeval-challenges/master/moderate/158%20-%20Interrupted%20bubble%20sort/158.php
https://raw.githubusercontent.com/nikai3d/ce-challenges/master/moderate/bubble.rb
https://raw.githubusercontent.com/nikai3d/ce-challenges/master/moderate/bubble.lua
https://raw.githubusercontent.com/nikai3d/ce-challenges/master/moderate/bubble.hs
https://raw.githubusercontent.com/nikai3d/ce-challenges/master/moderate/bubble.go
https://raw.githubusercontent.com/nikai3d/ce-challenges/master/moderate/bubble.c
