https://www.youtube.com/watch?v=5S5yVSbJknw
https://www.hackthebox.eu/home/machines/writeup/126
https://medium.com/ctf-writeups/aragog-write-up-htb-b035a467773
https://v3ded.github.io/ctf/htb-aragog.html
https://forum.hackthebox.eu/discussion/483/aragog
https://www.youtube.com/watch?v=gnLGRb--AoM
https://www.youtube.com/watch?v=K02mrGN2CYA
http://www.hackingarticles.in/hack-the-box-aragog-walkthrough/
https://www.absolomb.com/2018-07-21-HackTheBox-Aragog/
