http://www.varunchaudhry.in/2017/03/metasploitable2/
https://ethicalhacker1337.wordpress.com/2016/05/08/metasploitable-2-exploitation-tutorial/
https://tehaurum.wordpress.com/2015/06/14/metasploitable-2-walkthrough-an-exploitation-guide/
https://tecraksa.github.io/blog/2014/08/21/metasploitable-2/
https://chousensha.github.io/blog/2014/06/03/pentest-lab-metasploitable-2/
http://carlosrodallega.blogspot.co.uk/2012/10/metasploitable2-un-escenario-mas-por.html
http://www.infosecisland.com/blogview/22192-Metasploitable-20-pt-4-Cracking-Linux-Passwords-and-Pentesting-with-Grep.html
http://www.infosecisland.com/blogview/22155-Metasploitable-20-Tutorial-pt-3-Gaining-Root-from-a-Vulnerable-Service.html
http://www.infosecisland.com/blogview/22154-Metasploitable-20-Tutorial-pt-2-Scanning-for-Network-Services.html
http://www.infosecisland.com/blogview/22061-Metasploitable-20-Tutorial-Checking-for-Open-Ports-with-Nmap.html
https://www.youtube.com/watch?v=haVbl-zvhfs
