https://raw.githubusercontent.com/charles-wangkai/hackerrank/master/funny-string/Solution.java
https://raw.githubusercontent.com/ShrikantJadhav/HackerRank-Solutions/master/FunnyString.cpp
https://raw.githubusercontent.com/mattspaulding/hacker-rank/master/HackerRank/Algorithms/Strings/FunnyString.cs
