https://raw.githubusercontent.com/adityagupta1089/Codeforces-Solutions/master/P266B.java
https://raw.githubusercontent.com/dwiajik/codeforces/master/266B.py
https://raw.githubusercontent.com/mpfeifer1/Codeforces/master/266b.cpp
