https://codepen.io/SuperSteveG/pen/bBGLye
https://codereview.stackexchange.com/questions/178190/c-return-the-sum-of-the-2-smallest-elements-in-a-vector
https://www.geeksforgeeks.org/find-smallest-value-represented-sum-subset-given-array/
https://raw.githubusercontent.com/JesseClarkND/codeabbey_in_C-NET/master/Query%20String%20Parameters
https://raw.githubusercontent.com/YetAnotherMinion/YAMScratch/master/CodeAbbey/asm-sol/195.asm
https://raw.githubusercontent.com/texus/codingame/master/Community%20Puzzles/ASCII%20ART%20%3A%20Glass%20Stacking.c
https://raw.githubusercontent.com/Autumncong/problemssolve/master/Problems/problems156.java
https://raw.githubusercontent.com/chrisdfrey/code-abbey-solutions/master/convex-hull-and-farmers.py
https://gist.githubusercontent.com/JoshCheek/1462060/raw/f7e06e1e061e32570cfa28e2ca0550d2632c1723/2-caesar_cypher.rb
https://gitlab.com/CodeArtisan/codeabbey/raw/master/problem_96/solution.rkt
