https://raw.githubusercontent.com/sile/euler.rs/master/euler_02/src/problem056.rs
https://raw.githubusercontent.com/nayuki/Project-Euler-solutions/master/java/p056.java
https://raw.githubusercontent.com/kdungs/euler/master/056/euler_56.py
https://www.mathblog.dk/project-euler-56-considering-natural-numbers-of-the-form-ab-finding-the-maximum-digital-sum/
https://raw.githubusercontent.com/nayuki/Project-Euler-solutions/blob/master/haskell/p056.hs
