﻿http://sp4hack.blogspot.com.co/2012/10/we-chall-training-get-sourced.html
http://winkar.github.io/2015/01/24/wechall.html
https://raw.githubusercontent.com/james9909/PracticeCTF/master/WeChall/Get-Sourced/Solution.txt
https://raw.githubusercontent.com/lc4t/OtherFiles/master/md/WeChall.md
https://b0ngsec.blogspot.com.co/2016/08/wechall-training-get-sourced.html
http://byd.dropsec.xyz/2016/03/04/WeChall_writeup/#Training：Get-Sourced
https://medium.com/bugbountywriteup/wechall-wargame-solutions-76f60ea39b16
http://dipanjan.in/ctf/wechall-get-sourced/
