https://www.youtube.com/watch?v=5wyvpJa9LdU
https://forum.hackthebox.eu/discussion/46/joker-write-up-by-booj
https://www.absolomb.com/2017-12-30-HackTheBox-Joker-Writeup/
http://www.hackingarticles.in/hack-the-box-challenge-joker-walkthrough/
https://www.linkedin.com/pulse/hack-box-challenge-joker-walkthrough-aarti-singh
