https://www.mathblog.dk/project-euler-problem-7/
https://raw.githubusercontent.com/nayuki/Project-Euler-solutions/master/haskell/p007.hs
https://raw.githubusercontent.com/nayuki/Project-Euler-solutions/master/java/p007.java
https://raw.githubusercontent.com/nayuki/Project-Euler-solutions/master/mathematica/p007.mathematica
https://raw.githubusercontent.com/nayuki/Project-Euler-solutions/master/python/p007.py
https://raw.githubusercontent.com/zsiciarz/euler.rs/master/src/solutions/problem7.rs
