https://alexandervoidstar.wordpress.com/2015/08/29/hackthis-intermediate-level-4/
https://www.youtube.com/watch?v=a431FcdZ0uk
https://www.youtube.com/watch?v=VNZnQ9KCehU
https://www.youtube.com/watch?v=Qmzuy2ueSM4
