https://raw.githubusercontent.com/thiagoalessio/codeeval/master/easy/multiples-of-a-number/solution.sh
https://raw.githubusercontent.com/thiagoalessio/codeeval/master/easy/multiples-of-a-number/solution.rb
https://raw.githubusercontent.com/thiagoalessio/codeeval/master/easy/multiples-of-a-number/solution.py
https://raw.githubusercontent.com/thiagoalessio/codeeval/master/easy/multiples-of-a-number/solution.js
https://gist.githubusercontent.com/yuheiomori/11443072/raw/9fd79880fb0abf2c1a46977143f2e712842c628f/main.c
https://raw.githubusercontent.com/blamonet/php-code-eval-solutions/master/bit_positions.php
