https://raw.githubusercontent.com/TheAaronCovington/Java-Coderbyte-Solutions/master/19SecondGreatLow.java
https://raw.githubusercontent.com/ZLester/Coderbyte-Solutions/master/Easy/19%20-%20Second%20GreatLow.js
https://raw.githubusercontent.com/Nigelmnz/CoderbyteSolutions/master/19-SecondGreatLow/19.hs
