https://raw.githubusercontent.com/sile/euler.rs/master/euler_02/src/problem063.rs
https://raw.githubusercontent.com/nayuki/Project-Euler-solutions/master/java/p063.java
https://www.mathblog.dk/project-euler-63-n-digit-nth-power/
https://raw.githubusercontent.com/nayuki/Project-Euler-solutions/blob/master/haskell/p063.hs
https://raw.githubusercontent.com/nayuki/Project-Euler-solutions/blob/master/mathematica/p063.mathematica
https://raw.githubusercontent.com/nayuki/Project-Euler-solutions/blob/master/python/p063.py
