https://www.youtube.com/watch?v=fpz0WjCiA3w
https://www.youtube.com/watch?v=TRplSLNHHb8
https://www.youtube.com/watch?v=nW6-gPcsXSE
https://hackthissitesoltution.wordpress.com/2012/03/07/hts-basic-missions-1-6/
http://sp4hack.blogspot.com.co/2012/09/hack-this-site-basic-6.html
http://crackandsecure.blogspot.com.co/2011/04/hack-this-site-hts-basic-6.html
http://www.amitghosh.net/hts-basic-mission-6-solution/
https://0x1gab.com/2016/05/28/hackthissite-basic-challenge-level-6/
https://es.slideshare.net/ciskosv/hackthissite-3402645
http://blog.abhishekg.com/2011/12/basic-6-decrpyt-an-encryption/
https://raw.githubusercontent.com/Wh1t3Fox/hackthissite/master/basic/level_6/decrypt.py
https://www.aldeid.com/wiki/Hackthissite/Basic/Level6
http://truemiller.com/2017/09/hack-this-site-all-basic-solutions/#basic_6
https://github.com/attilathedud/HackThisSite/tree/master/Basic
