https://github.com/TheAaronCovington/Java-Coderbyte-Solutions/raw/master/06LetterCapitalize.java
https://github.com/bolducp/coderbyte/raw/master/easy/06_letter_capitalize.py
https://raw.githubusercontent.com/ZLester/Coderbyte-Solutions/master/Easy/06%20-%20Letter%20Capitalize.js
https://raw.githubusercontent.com/Nigelmnz/CoderbyteSolutions/master/06-LetterCapitalize/6.hs
https://raw.githubusercontent.com/aesee/cpp-challenges/master/LetterCapitalize.cpp
