https://www.youtube.com/watch?v=z0YDDWVwQCk
https://alexandervoidstar.wordpress.com/2015/08/09/hackthis-basic-level-6/
https://www.youtube.com/watch?v=X0GN4Lfxxb4
https://www.youtube.com/watch?v=LVjMv6GPSqM
https://www.youtube.com/watch?v=LksLM6zree4
https://www.youtube.com/watch?v=xy1WY_Q3Af8
https://raw.githubusercontent.com/luceatnobis/challenges/master/hackthis.co.uk/basic/6/notes
