3
4; 303 6874 69.957781641; 1772 9314 73.479878657; 7946 6024 78.055985299; 8812 157 82.230678694
4; 119 7195 26.515150291; 5122 1579 28.920160546; 8633 7279 27.820585213; 5727 9281 25.468806669
4; 640 7585 102.002652597; 6350 369 102.650468713; 7244 3422 99.254436796; 5967 5190 96.279961865
