https://raw.githubusercontent.com/RomaniukVadim/root-me/master/Web-Server/Remote%20File%20Inclusion
http://kmb.ufoctf.ru/web/rfi/main.html
https://rootable.tistory.com/entry/Rootme-Remote-File-Inclusion
https://mhomshowpro.wordpress.com/2016/09/03/write-uproot-me-remote-file-inclusion/
http://blog.naver.com/PostView.nhn?blogId=pushesp&logNo=220927045347&parentCategoryNo=&categoryNo=54&viewDate=&isShowPopularPosts=true&from=search
https://www.cnblogs.com/joy-nick/p/5569494.html
https://blog.silnex.kr/level-22root-me-remote-file-inclusion/
https://zhiliudi.blogspot.com/2017/03/root-me-web-serveur-all-raiders.html
https://ja.whotwi.com/rootme_org/tweets/popular?page=3
http://exp-blog.com/2019/01/02/pid-2597/12/
https://jeonyoungsin.tistory.com/199
