https://www.youtube.com/watch?v=l-wzBhc9wFc
https://www.youtube.com/watch?v=iUVmP0YbYVw
https://forum.hackthebox.eu/discussion/723/tally-write-up-by-alamot
http://www.hackingarticles.in/hack-the-box-challenge-tally-walkthrough/
https://medium.com/pentestsec/hackthebox-tally-ctf-writeup-e132354d60e1
https://www.youtube.com/watch?v=XKtW8JBmh9Y
https://www.youtube.com/watch?v=8HRDLn5eAGk
https://video.hacking.reviews/2018/05/hackthebox-tally.html
https://www.absolomb.com/2018-05-04-HackTheBox-Tally/
