https://raw.githubusercontent.com/LFlare/picoctf_2017_writeup/master/cryptography/computersa/README.md
https://www.youtube.com/watch?v=hDnCu-ViZF07
https://raw.githubusercontent.com/BOAKGP/CTF-Writeups/master/PicoCTF%202017/Level%201/Cryptography/computeRSA/README.md
